[{
	"model": "company.coordinator",
	"pk": 1,
	"fields": {
		"company": 1,
		"user": 3,
		"phone": "+918124668991",
		"created_by": 2,
		"is_super_coordinator": true,
		"created_date": null,
		"deleted_on": null
	}
},
{
	"model": "company.coordinator",
	"pk": 2,
	"fields": {
		"company": 1,
		"user": 4,
		"phone": "+918124668991",
		"created_by": 3,
		"is_super_coordinator": false,
		"created_date": null,
		"deleted_on": null
	}
}]