[
{
    "model": "transfer_stations.transferstation",
    "pk": 1,
    "fields": {
        "street": "street",
        "country": 1,
        "province": 1,
        "city": 1,
        "postal_code": "45656545",
        "name": "TS1",
        "display_id": "TS001",
        "own_yard": false,
        "phone": "+917025120518",
        "email": "ts1@gmail.com",
        "created_date": "2018-10-12",
        "modified_date": null,
        "created_by": 1,
        "is_deleted": false,
        "deleted_on": null
    }
}
]
