[
{
    "model": "company.truck",
    "pk": 1,
    "fields": {
        "display_id": "SPH01",
        "truck_type": "SPH",
        "number": null,
        "color": "black",
        "license_plate": "sg5654",
        "vin": "dfffg",
        "make": "2014",
        "truck_model": "324435",
        "kilo_metres": "34",
        "fuel_efficiency": "45",
        "created_date": "2018-10-18",
        "modified_date": "2018-10-22",
        "created_by": 3,
        "is_deleted": false,
        "deleted_on": null,
        "company": 1
    }
},
    {
    "model": "company.truck",
    "pk": 2,
    "fields": {
        "display_id": "SPH01",
        "truck_type": "SPH",
        "number": null,
        "color": "black",
        "license_plate": "sg5654",
        "vin": "dffg",
        "make": "2014",
        "truck_model": "324435",
        "kilo_metres": "34",
        "fuel_efficiency": "45",
        "created_date": "2018-10-18",
        "modified_date": "2018-10-22",
        "created_by": 3,
        "is_deleted": false,
        "deleted_on": null,
        "company": 1
    }
}
]
